prem_analysis
…
Data import and processing

Import data

DETAILS ABOUT DATA PRE-PROCESSING NEED TO BE ADDED

pre_processed_data <- read_csv(here("data", "pilot_data_preprocessed.csv")) 

pre_processed_data

## # A tibble: 512 x 47
##    Study_ID Author_year  Publication_year Country_firstAuthor Effect_ID
##    <chr>    <chr>                   <dbl> <chr>               <chr>    
##  1 F001     Alves_2017               2017 Portugal            E001     
##  2 F001     Alves_2017               2017 Portugal            E002     
##  3 F002     Barbosa_2018             2018 Portugal            E003     
##  4 F002     Barbosa_2018             2018 Portugal            E004     
##  5 F002     Barbosa_2018             2018 Portugal            E005     
##  6 F002     Barbosa_2018             2018 Portugal            E006     
##  7 F002     Barbosa_2018             2018 Portugal            E007     
##  8 F002     Barbosa_2018             2018 Portugal            E008     
##  9 F002     Barbosa_2018             2018 Portugal            E009     
## 10 F002     Barbosa_2018             2018 Portugal            E010     
## # ... with 502 more rows, and 42 more variables: Species_common <chr>,
## #   Species_Scientific <chr>, Invertebrate_vertebrate <chr>,
## #   Moisture_loss_in_percent <dbl>, PFAS_type <chr>, PFAS_carbon_chain <dbl>,
## #   linear_total <chr>, Choice_of_9 <chr>, Cooking_method <chr>,
## #   Cooking_Category <chr>, Comments_cooking <chr>,
## #   Temperature_in_Celsius <dbl>, Length_cooking_time_in_s <dbl>, Water <chr>,
## #   Oil <chr>, Oil_type <chr>, Volume_liquid_ml <dbl>, Cohort_ID <chr>,
## #   Cohort_comment <chr>, Nc <dbl>, Pooled_Nc <dbl>, Unit_PFAS_conc <chr>,
## #   Mc <dbl>, Mc_comment <chr>, Sc <dbl>, sd <chr>,
…
